^C:\USERS\JYSSO\DESKTOP\OMOKCLIENT\OMOKCLIENT\STDAFX.CPP
/c /ZI /JMC /nologo /W3 /WX- /diagnostics:classic /sdl /Od /Oy- /D WIN32 /D _DEBUG /D _WINDOWS /D _UNICODE /D UNICODE /Gm- /EHsc /RTC1 /MDd /GS /fp:precise /permissive- /Zc:wchar_t /Zc:forScope /Zc:inline /Yc"stdafx.h" /Fp"DEBUG\OMOKCLIENT.PCH" /Fo"DEBUG\\" /Fd"DEBUG\VC141.PDB" /Gd /TP /analyze- /FC C:\USERS\JYSSO\DESKTOP\OMOKCLIENT\OMOKCLIENT\STDAFX.CPP
^C:\USERS\JYSSO\DESKTOP\OMOKCLIENT\OMOKCLIENT\OMOKCLIENT.CPP
/c /ZI /JMC /nologo /W3 /WX- /diagnostics:classic /sdl /Od /Oy- /D WIN32 /D _DEBUG /D _WINDOWS /D _UNICODE /D UNICODE /Gm- /EHsc /RTC1 /MDd /GS /fp:precise /permissive- /Zc:wchar_t /Zc:forScope /Zc:inline /Yu"stdafx.h" /Fp"DEBUG\OMOKCLIENT.PCH" /Fo"DEBUG\\" /Fd"DEBUG\VC141.PDB" /Gd /TP /analyze- /FC C:\USERS\JYSSO\DESKTOP\OMOKCLIENT\OMOKCLIENT\OMOKCLIENT.CPP
^C:\USERS\JYSSO\DESKTOP\넷겜플\NETWORKGAMEPROGRAMING_2019-2\TERMPROJECT\OMOKCLIENT\OMOKCLIENT\STDAFX.CPP
/c /ZI /JMC /nologo /W3 /WX- /diagnostics:classic /sdl /Od /Oy- /D WIN32 /D _DEBUG /D _WINDOWS /D _UNICODE /D UNICODE /Gm- /EHsc /RTC1 /MDd /GS /fp:precise /permissive- /Zc:wchar_t /Zc:forScope /Zc:inline /Yc"stdafx.h" /Fp"DEBUG\OMOKCLIENT.PCH" /Fo"DEBUG\\" /Fd"DEBUG\VC141.PDB" /Gd /TP /analyze- /FC C:\USERS\JYSSO\DESKTOP\넷겜플\NETWORKGAMEPROGRAMING_2019-2\TERMPROJECT\OMOKCLIENT\OMOKCLIENT\STDAFX.CPP
^C:\USERS\JYSSO\DESKTOP\넷겜플\NETWORKGAMEPROGRAMING_2019-2\TERMPROJECT\OMOKCLIENT\OMOKCLIENT\OMOKCLIENT.CPP
/c /ZI /JMC /nologo /W3 /WX- /diagnostics:classic /sdl /Od /Oy- /D WIN32 /D _DEBUG /D _WINDOWS /D _UNICODE /D UNICODE /Gm- /EHsc /RTC1 /MDd /GS /fp:precise /permissive- /Zc:wchar_t /Zc:forScope /Zc:inline /Yu"stdafx.h" /Fp"DEBUG\OMOKCLIENT.PCH" /Fo"DEBUG\\" /Fd"DEBUG\VC141.PDB" /Gd /TP /analyze- /FC C:\USERS\JYSSO\DESKTOP\넷겜플\NETWORKGAMEPROGRAMING_2019-2\TERMPROJECT\OMOKCLIENT\OMOKCLIENT\OMOKCLIENT.CPP
