^C:\USERS\JYSSO\DESKTOP\NGP_TERMPROJECT-MASTER\OMOKCLIENT\OMOKCLIENT\STDAFX.CPP
/c /ZI /JMC /nologo /W3 /WX- /diagnostics:classic /sdl /Od /D _DEBUG /D _WINDOWS /D _UNICODE /D UNICODE /Gm- /EHsc /RTC1 /MDd /GS /fp:precise /permissive- /Zc:wchar_t /Zc:forScope /Zc:inline /Yc"stdafx.h" /Fp"X64\DEBUG\OMOKCLIENT.PCH" /Fo"X64\DEBUG\\" /Fd"X64\DEBUG\VC141.PDB" /Gd /TP /FC C:\USERS\JYSSO\DESKTOP\NGP_TERMPROJECT-MASTER\OMOKCLIENT\OMOKCLIENT\STDAFX.CPP
^C:\USERS\JYSSO\DESKTOP\NGP_TERMPROJECT-MASTER\OMOKCLIENT\OMOKCLIENT\OMOKCLIENT.CPP
/c /ZI /JMC /nologo /W3 /WX- /diagnostics:classic /sdl /Od /D _DEBUG /D _WINDOWS /D _UNICODE /D UNICODE /Gm- /EHsc /RTC1 /MDd /GS /fp:precise /permissive- /Zc:wchar_t /Zc:forScope /Zc:inline /Yu"stdafx.h" /Fp"X64\DEBUG\OMOKCLIENT.PCH" /Fo"X64\DEBUG\\" /Fd"X64\DEBUG\VC141.PDB" /Gd /TP /FC C:\USERS\JYSSO\DESKTOP\NGP_TERMPROJECT-MASTER\OMOKCLIENT\OMOKCLIENT\OMOKCLIENT.CPP
^C:\USERS\USER\DESKTOP\NGP_TERMPROJECT-MASTER\NGP_TERMPROJECT-MASTER\OMOKCLIENT\OMOKCLIENT\STDAFX.CPP
/c /ZI /JMC /nologo /W3 /WX- /diagnostics:classic /sdl- /Od /D _DEBUG /D _WINDOWS /D _UNICODE /D UNICODE /Gm- /EHsc /RTC1 /MDd /GS /fp:precise /permissive- /Zc:wchar_t /Zc:forScope /Zc:inline /Yc"stdafx.h" /Fp"X64\DEBUG\OMOKCLIENT.PCH" /Fo"X64\DEBUG\\" /Fd"X64\DEBUG\VC141.PDB" /Gd /TP /FC C:\USERS\USER\DESKTOP\NGP_TERMPROJECT-MASTER\NGP_TERMPROJECT-MASTER\OMOKCLIENT\OMOKCLIENT\STDAFX.CPP
^C:\USERS\USER\DESKTOP\NGP_TERMPROJECT-MASTER\NGP_TERMPROJECT-MASTER\OMOKCLIENT\OMOKCLIENT\OMOKCLIENT.CPP
/c /ZI /JMC /nologo /W3 /WX- /diagnostics:classic /sdl- /Od /D _DEBUG /D _WINDOWS /D _UNICODE /D UNICODE /Gm- /EHsc /RTC1 /MDd /GS /fp:precise /permissive- /Zc:wchar_t /Zc:forScope /Zc:inline /Yu"stdafx.h" /Fp"X64\DEBUG\OMOKCLIENT.PCH" /Fo"X64\DEBUG\\" /Fd"X64\DEBUG\VC141.PDB" /Gd /TP /FC C:\USERS\USER\DESKTOP\NGP_TERMPROJECT-MASTER\NGP_TERMPROJECT-MASTER\OMOKCLIENT\OMOKCLIENT\OMOKCLIENT.CPP
^C:\USERS\USER\DESKTOP\NGP\OMOKCLIENT\OMOKCLIENT\STDAFX.CPP
/c /ZI /JMC /nologo /W3 /WX- /diagnostics:classic /sdl- /Od /D _DEBUG /D _WINDOWS /D _MBCS /Gm- /EHsc /RTC1 /MDd /GS /fp:precise /Zc:wchar_t /Zc:forScope /Zc:inline /Yc"stdafx.h" /Fp"X64\DEBUG\OMOKCLIENT.PCH" /Fo"X64\DEBUG\\" /Fd"X64\DEBUG\VC141.PDB" /Gd /TP /FC C:\USERS\USER\DESKTOP\NGP\OMOKCLIENT\OMOKCLIENT\STDAFX.CPP
^C:\USERS\USER\DESKTOP\NGP\OMOKCLIENT\OMOKCLIENT\OMOKCLIENT.CPP
/c /ZI /JMC /nologo /W3 /WX- /diagnostics:classic /sdl- /Od /D _DEBUG /D _WINDOWS /D _MBCS /Gm- /EHsc /RTC1 /MDd /GS /fp:precise /Zc:wchar_t /Zc:forScope /Zc:inline /Yu"stdafx.h" /Fp"X64\DEBUG\OMOKCLIENT.PCH" /Fo"X64\DEBUG\\" /Fd"X64\DEBUG\VC141.PDB" /Gd /TP /FC C:\USERS\USER\DESKTOP\NGP\OMOKCLIENT\OMOKCLIENT\OMOKCLIENT.CPP
^C:\USERS\USER\DESKTOP\수업 자료\19년 2학기 수업자료\네트워크 게임 프로그래밍\NGP_TERMPROJECT\OMOKCLIENT\OMOKCLIENT\STDAFX.CPP
/c /ZI /JMC /nologo /W3 /WX- /diagnostics:classic /sdl- /Od /D _DEBUG /D _WINDOWS /D _MBCS /Gm- /EHsc /RTC1 /MDd /GS /fp:precise /Zc:wchar_t /Zc:forScope /Zc:inline /Yc"stdafx.h" /Fp"X64\DEBUG\OMOKCLIENT.PCH" /Fo"X64\DEBUG\\" /Fd"X64\DEBUG\VC141.PDB" /Gd /TP /FC C:\USERS\USER\DESKTOP\수업 자료\19년 2학기 수업자료\네트워크 게임 프로그래밍\NGP_TERMPROJECT\OMOKCLIENT\OMOKCLIENT\STDAFX.CPP
^C:\USERS\USER\DESKTOP\수업 자료\19년 2학기 수업자료\네트워크 게임 프로그래밍\NGP_TERMPROJECT\OMOKCLIENT\OMOKCLIENT\OMOKCLIENT.CPP
/c /ZI /JMC /nologo /W3 /WX- /diagnostics:classic /sdl- /Od /D _DEBUG /D _WINDOWS /D _MBCS /Gm- /EHsc /RTC1 /MDd /GS /fp:precise /Zc:wchar_t /Zc:forScope /Zc:inline /Yu"stdafx.h" /Fp"X64\DEBUG\OMOKCLIENT.PCH" /Fo"X64\DEBUG\\" /Fd"X64\DEBUG\VC141.PDB" /Gd /TP /FC C:\USERS\USER\DESKTOP\수업 자료\19년 2학기 수업자료\네트워크 게임 프로그래밍\NGP_TERMPROJECT\OMOKCLIENT\OMOKCLIENT\OMOKCLIENT.CPP
^C:\USERS\JYSSO\DESKTOP\프로젝트\NGP_TERMPROJECT\OMOKCLIENT\OMOKCLIENT\STDAFX.CPP
/c /ZI /JMC /nologo /W3 /WX- /diagnostics:classic /sdl- /Od /D _DEBUG /D _WINDOWS /D _MBCS /Gm- /EHsc /RTC1 /MDd /GS /fp:precise /Zc:wchar_t /Zc:forScope /Zc:inline /Yc"stdafx.h" /Fp"X64\DEBUG\OMOKCLIENT.PCH" /Fo"X64\DEBUG\\" /Fd"X64\DEBUG\VC141.PDB" /Gd /TP /FC C:\USERS\JYSSO\DESKTOP\프로젝트\NGP_TERMPROJECT\OMOKCLIENT\OMOKCLIENT\STDAFX.CPP
^C:\USERS\JYSSO\DESKTOP\프로젝트\NGP_TERMPROJECT\OMOKCLIENT\OMOKCLIENT\OMOKCLIENT.CPP
/c /ZI /JMC /nologo /W3 /WX- /diagnostics:classic /sdl- /Od /D _DEBUG /D _WINDOWS /D _MBCS /Gm- /EHsc /RTC1 /MDd /GS /fp:precise /Zc:wchar_t /Zc:forScope /Zc:inline /Yu"stdafx.h" /Fp"X64\DEBUG\OMOKCLIENT.PCH" /Fo"X64\DEBUG\\" /Fd"X64\DEBUG\VC141.PDB" /Gd /TP /FC C:\USERS\JYSSO\DESKTOP\프로젝트\NGP_TERMPROJECT\OMOKCLIENT\OMOKCLIENT\OMOKCLIENT.CPP
