^C:\USERS\JYSSO\DESKTOP\프로젝트\NGP_TERMPROJECT\OMOKCLIENT\OMOKCLIENT\STDAFX.CPP
C:\USERS\JYSSO\DESKTOP\프로젝트\NGP_TERMPROJECT\OMOKCLIENT\OMOKCLIENT\X64\DEBUG\OMOKCLIENT.PCH
C:\USERS\JYSSO\DESKTOP\프로젝트\NGP_TERMPROJECT\OMOKCLIENT\OMOKCLIENT\X64\DEBUG\VC141.PDB
C:\USERS\JYSSO\DESKTOP\프로젝트\NGP_TERMPROJECT\OMOKCLIENT\OMOKCLIENT\X64\DEBUG\VC141.IDB
C:\USERS\JYSSO\DESKTOP\프로젝트\NGP_TERMPROJECT\OMOKCLIENT\OMOKCLIENT\X64\DEBUG\STDAFX.OBJ
^C:\USERS\JYSSO\DESKTOP\프로젝트\NGP_TERMPROJECT\OMOKCLIENT\OMOKCLIENT\OMOKCLIENT.CPP
C:\USERS\JYSSO\DESKTOP\프로젝트\NGP_TERMPROJECT\OMOKCLIENT\OMOKCLIENT\X64\DEBUG\VC141.PDB
C:\USERS\JYSSO\DESKTOP\프로젝트\NGP_TERMPROJECT\OMOKCLIENT\OMOKCLIENT\X64\DEBUG\VC141.IDB
C:\USERS\JYSSO\DESKTOP\프로젝트\NGP_TERMPROJECT\OMOKCLIENT\OMOKCLIENT\X64\DEBUG\OMOKCLIENT.OBJ
