^C:\USERS\JYSSO\DESKTOP\NGP_TERMPROJECT-MASTER\OMOKCLIENT\OMOKCLIENT\X64\DEBUG\OMOKCLIENT.OBJ|C:\USERS\JYSSO\DESKTOP\NGP_TERMPROJECT-MASTER\OMOKCLIENT\OMOKCLIENT\X64\DEBUG\OMOKCLIENT.RES|C:\USERS\JYSSO\DESKTOP\NGP_TERMPROJECT-MASTER\OMOKCLIENT\OMOKCLIENT\X64\DEBUG\STDAFX.OBJ
/OUT:"C:\USERS\JYSSO\DESKTOP\NGP_TERMPROJECT-MASTER\OMOKCLIENT\X64\DEBUG\OMOKCLIENT.EXE" /INCREMENTAL /NOLOGO KERNEL32.LIB USER32.LIB GDI32.LIB WINSPOOL.LIB COMDLG32.LIB ADVAPI32.LIB SHELL32.LIB OLE32.LIB OLEAUT32.LIB UUID.LIB ODBC32.LIB ODBCCP32.LIB /MANIFEST /MANIFESTUAC:"level='asInvoker' uiAccess='false'" /manifest:embed /DEBUG:FASTLINK /PDB:"C:\USERS\JYSSO\DESKTOP\NGP_TERMPROJECT-MASTER\OMOKCLIENT\X64\DEBUG\OMOKCLIENT.PDB" /SUBSYSTEM:WINDOWS /TLBID:1 /DYNAMICBASE /NXCOMPAT /IMPLIB:"C:\USERS\JYSSO\DESKTOP\NGP_TERMPROJECT-MASTER\OMOKCLIENT\X64\DEBUG\OMOKCLIENT.LIB" /MACHINE:X64 X64\DEBUG\OMOKCLIENT.RESX64\DEBUG\OMOKCLIENT.OBJX64\DEBUG\STDAFX.OBJ
^C:\USERS\USER\DESKTOP\NGP_TERMPROJECT-MASTER\NGP_TERMPROJECT-MASTER\OMOKCLIENT\OMOKCLIENT\X64\DEBUG\OMOKCLIENT.OBJ|C:\USERS\USER\DESKTOP\NGP_TERMPROJECT-MASTER\NGP_TERMPROJECT-MASTER\OMOKCLIENT\OMOKCLIENT\X64\DEBUG\OMOKCLIENT.RES|C:\USERS\USER\DESKTOP\NGP_TERMPROJECT-MASTER\NGP_TERMPROJECT-MASTER\OMOKCLIENT\OMOKCLIENT\X64\DEBUG\STDAFX.OBJ
/OUT:"C:\USERS\USER\DESKTOP\NGP_TERMPROJECT-MASTER\NGP_TERMPROJECT-MASTER\OMOKCLIENT\X64\DEBUG\OMOKCLIENT.EXE" /INCREMENTAL /NOLOGO KERNEL32.LIB USER32.LIB GDI32.LIB WINSPOOL.LIB COMDLG32.LIB ADVAPI32.LIB SHELL32.LIB OLE32.LIB OLEAUT32.LIB UUID.LIB ODBC32.LIB ODBCCP32.LIB /MANIFEST /MANIFESTUAC:"level='asInvoker' uiAccess='false'" /manifest:embed /DEBUG:FASTLINK /PDB:"C:\USERS\USER\DESKTOP\NGP_TERMPROJECT-MASTER\NGP_TERMPROJECT-MASTER\OMOKCLIENT\X64\DEBUG\OMOKCLIENT.PDB" /SUBSYSTEM:WINDOWS /TLBID:1 /DYNAMICBASE /NXCOMPAT /IMPLIB:"C:\USERS\USER\DESKTOP\NGP_TERMPROJECT-MASTER\NGP_TERMPROJECT-MASTER\OMOKCLIENT\X64\DEBUG\OMOKCLIENT.LIB" /MACHINE:X64 X64\DEBUG\OMOKCLIENT.RESX64\DEBUG\OMOKCLIENT.OBJX64\DEBUG\STDAFX.OBJ
^C:\USERS\USER\DESKTOP\NGP\OMOKCLIENT\OMOKCLIENT\X64\DEBUG\OMOKCLIENT.OBJ|C:\USERS\USER\DESKTOP\NGP\OMOKCLIENT\OMOKCLIENT\X64\DEBUG\OMOKCLIENT.RES|C:\USERS\USER\DESKTOP\NGP\OMOKCLIENT\OMOKCLIENT\X64\DEBUG\STDAFX.OBJ
/OUT:"C:\USERS\USER\DESKTOP\NGP\OMOKCLIENT\X64\DEBUG\OMOKCLIENT.EXE" /INCREMENTAL /NOLOGO KERNEL32.LIB USER32.LIB GDI32.LIB WINSPOOL.LIB COMDLG32.LIB ADVAPI32.LIB SHELL32.LIB OLE32.LIB OLEAUT32.LIB UUID.LIB ODBC32.LIB ODBCCP32.LIB /MANIFEST /MANIFESTUAC:"level='asInvoker' uiAccess='false'" /manifest:embed /DEBUG:FASTLINK /PDB:"C:\USERS\USER\DESKTOP\NGP\OMOKCLIENT\X64\DEBUG\OMOKCLIENT.PDB" /SUBSYSTEM:WINDOWS /TLBID:1 /DYNAMICBASE /NXCOMPAT /IMPLIB:"C:\USERS\USER\DESKTOP\NGP\OMOKCLIENT\X64\DEBUG\OMOKCLIENT.LIB" /MACHINE:X64 X64\DEBUG\OMOKCLIENT.RESX64\DEBUG\OMOKCLIENT.OBJX64\DEBUG\STDAFX.OBJ
^C:\USERS\JYSSO\DESKTOP\프로젝트\NGP_TERMPROJECT\OMOKCLIENT\OMOKCLIENT\X64\DEBUG\OMOKCLIENT.OBJ|C:\USERS\JYSSO\DESKTOP\프로젝트\NGP_TERMPROJECT\OMOKCLIENT\OMOKCLIENT\X64\DEBUG\OMOKCLIENT.RES|C:\USERS\JYSSO\DESKTOP\프로젝트\NGP_TERMPROJECT\OMOKCLIENT\OMOKCLIENT\X64\DEBUG\STDAFX.OBJ
/OUT:"C:\USERS\JYSSO\DESKTOP\프로젝트\NGP_TERMPROJECT\OMOKCLIENT\X64\DEBUG\OMOKCLIENT.EXE" /INCREMENTAL /NOLOGO KERNEL32.LIB USER32.LIB GDI32.LIB WINSPOOL.LIB COMDLG32.LIB ADVAPI32.LIB SHELL32.LIB OLE32.LIB OLEAUT32.LIB UUID.LIB ODBC32.LIB ODBCCP32.LIB /MANIFEST /MANIFESTUAC:"level='asInvoker' uiAccess='false'" /manifest:embed /DEBUG:FASTLINK /PDB:"C:\USERS\JYSSO\DESKTOP\프로젝트\NGP_TERMPROJECT\OMOKCLIENT\X64\DEBUG\OMOKCLIENT.PDB" /SUBSYSTEM:WINDOWS /TLBID:1 /DYNAMICBASE /NXCOMPAT /IMPLIB:"C:\USERS\JYSSO\DESKTOP\프로젝트\NGP_TERMPROJECT\OMOKCLIENT\X64\DEBUG\OMOKCLIENT.LIB" /MACHINE:X64 X64\DEBUG\OMOKCLIENT.RESX64\DEBUG\OMOKCLIENT.OBJX64\DEBUG\STDAFX.OBJ
^C:\USERS\USER\DESKTOP\수업 자료\19년 2학기 수업자료\네트워크 게임 프로그래밍\NGP_TERMPROJECT\OMOKCLIENT\OMOKCLIENT\X64\DEBUG\OMOKCLIENT.OBJ|C:\USERS\USER\DESKTOP\수업 자료\19년 2학기 수업자료\네트워크 게임 프로그래밍\NGP_TERMPROJECT\OMOKCLIENT\OMOKCLIENT\X64\DEBUG\OMOKCLIENT.RES|C:\USERS\USER\DESKTOP\수업 자료\19년 2학기 수업자료\네트워크 게임 프로그래밍\NGP_TERMPROJECT\OMOKCLIENT\OMOKCLIENT\X64\DEBUG\STDAFX.OBJ
/OUT:"C:\USERS\USER\DESKTOP\수업 자료\19년 2학기 수업자료\네트워크 게임 프로그래밍\NGP_TERMPROJECT\OMOKCLIENT\X64\DEBUG\OMOKCLIENT.EXE" /INCREMENTAL /NOLOGO KERNEL32.LIB USER32.LIB GDI32.LIB WINSPOOL.LIB COMDLG32.LIB ADVAPI32.LIB SHELL32.LIB OLE32.LIB OLEAUT32.LIB UUID.LIB ODBC32.LIB ODBCCP32.LIB /MANIFEST /MANIFESTUAC:"level='asInvoker' uiAccess='false'" /manifest:embed /DEBUG:FASTLINK /PDB:"C:\USERS\USER\DESKTOP\수업 자료\19년 2학기 수업자료\네트워크 게임 프로그래밍\NGP_TERMPROJECT\OMOKCLIENT\X64\DEBUG\OMOKCLIENT.PDB" /SUBSYSTEM:WINDOWS /TLBID:1 /DYNAMICBASE /NXCOMPAT /IMPLIB:"C:\USERS\USER\DESKTOP\수업 자료\19년 2학기 수업자료\네트워크 게임 프로그래밍\NGP_TERMPROJECT\OMOKCLIENT\X64\DEBUG\OMOKCLIENT.LIB" /MACHINE:X64 X64\DEBUG\OMOKCLIENT.RESX64\DEBUG\OMOKCLIENT.OBJX64\DEBUG\STDAFX.OBJ
