^C:\USERS\JYSSO\DESKTOP\프로젝트\NGP_TERMPROJECT\OMOKCLIENT\OMOKCLIENT\OMOKCLIENT.RC
C:\USERS\JYSSO\DESKTOP\프로젝트\NGP_TERMPROJECT\OMOKCLIENT\OMOKCLIENT\RESOURCE.H
C:\USERS\JYSSO\DESKTOP\프로젝트\NGP_TERMPROJECT\OMOKCLIENT\OMOKCLIENT\TARGETVER.H
C:\PROGRAM FILES (X86)\WINDOWS KITS\10\INCLUDE\10.0.17763.0\SHARED\SDKDDKVER.H
C:\PROGRAM FILES (X86)\WINDOWS KITS\10\INCLUDE\10.0.17763.0\UM\WINDOWS.H
C:\PROGRAM FILES (X86)\WINDOWS KITS\10\INCLUDE\10.0.17763.0\SHARED\WINAPIFAMILY.H
C:\PROGRAM FILES (X86)\WINDOWS KITS\10\INCLUDE\10.0.17763.0\SHARED\WINPACKAGEFAMILY.H
C:\PROGRAM FILES (X86)\WINDOWS KITS\10\INCLUDE\10.0.17763.0\UM\WINRESRC.H
C:\PROGRAM FILES (X86)\WINDOWS KITS\10\INCLUDE\10.0.17763.0\UM\WINUSER.RH
C:\PROGRAM FILES (X86)\WINDOWS KITS\10\INCLUDE\10.0.17763.0\UM\COMMCTRL.RH
C:\PROGRAM FILES (X86)\WINDOWS KITS\10\INCLUDE\10.0.17763.0\UM\DDE.RH
C:\PROGRAM FILES (X86)\WINDOWS KITS\10\INCLUDE\10.0.17763.0\UM\WINNT.RH
C:\PROGRAM FILES (X86)\WINDOWS KITS\10\INCLUDE\10.0.17763.0\UM\DLGS.H
C:\PROGRAM FILES (X86)\WINDOWS KITS\10\INCLUDE\10.0.17763.0\UM\WINVER.H
C:\PROGRAM FILES (X86)\WINDOWS KITS\10\INCLUDE\10.0.17763.0\SHARED\SPECSTRINGS.H
C:\PROGRAM FILES (X86)\MICROSOFT VISUAL STUDIO\2017\COMMUNITY\VC\TOOLS\MSVC\14.16.27023\INCLUDE\SAL.H
C:\PROGRAM FILES (X86)\MICROSOFT VISUAL STUDIO\2017\COMMUNITY\VC\TOOLS\MSVC\14.16.27023\INCLUDE\CONCURRENCYSAL.H
C:\PROGRAM FILES (X86)\WINDOWS KITS\10\INCLUDE\10.0.17763.0\SHARED\DRIVERSPECS.H
C:\PROGRAM FILES (X86)\WINDOWS KITS\10\INCLUDE\10.0.17763.0\SHARED\SDV_DRIVERSPECS.H
C:\PROGRAM FILES (X86)\WINDOWS KITS\10\INCLUDE\10.0.17763.0\UM\VERRSRC.H
C:\USERS\JYSSO\DESKTOP\프로젝트\NGP_TERMPROJECT\OMOKCLIENT\OMOKCLIENT\OMOKCLIENT.ICO
C:\USERS\JYSSO\DESKTOP\프로젝트\NGP_TERMPROJECT\OMOKCLIENT\OMOKCLIENT\SMALL.ICO
